<?xml version="1.0" encoding="utf-8"?>
<!-- Generator: Adobe Illustrator 14.0.0, SVG Export Plug-In . SVG Version: 6.00 Build 43363)  -->
<!DOCTYPE svg PUBLIC "-//W3C//DTD SVG 1.1//EN" "http://www.w3.org/Graphics/SVG/1.1/DTD/svg11.dtd">
<svg version="1.1" id="Layer_1" xmlns="http://www.w3.org/2000/svg" xmlns:xlink="http://www.w3.org/1999/xlink" x="0px" y="0px"
	 width="100px" height="100px" viewBox="0 0 100 100" enable-background="new 0 0 100 100" xml:space="preserve">
<g>
	<polygon fill="#808080" points="79.756,13.344 79.756,89.648 23.245,89.648 23.245,99 89.105,99 89.105,13.344 	"/>
	<g>
		<path fill="#808080" d="M52.577,42.688c-2.678-1.577-5.638-2.366-8.79-2.366c-3.138,0-6.092,0.789-8.762,2.366
			c-2.697,1.569-4.836,3.713-6.396,6.373c-1.546,2.665-2.329,5.605-2.329,8.767c0,2.416,0.461,4.707,1.372,6.829
			c0.934,2.176,2.186,4.062,3.719,5.613c1.536,1.523,3.423,2.775,5.604,3.728c4.952,2.154,10.888,1.791,15.582-0.957
			c2.696-1.569,4.859-3.731,6.42-6.396c1.556-2.684,2.351-5.646,2.351-8.816c0-3.14-0.795-6.089-2.351-8.767
			C57.432,46.401,55.265,44.257,52.577,42.688z M51.969,66.345c-0.339,0.354-0.846,0.554-1.376,0.554
			c-0.533,0-1.035-0.199-1.384-0.554l-6.792-6.791c-0.433-0.424-0.617-0.985-0.562-1.611l-0.046-12.061
			c0-1.086,0.903-2.001,1.979-2.001c1.123,0,2.053,0.906,2.053,2.001v11.477l6.148,6.185C52.771,64.344,52.771,65.55,51.969,66.345z
			"/>
		<path fill="#808080" d="M38.395,1L10.894,28.494v58.151H76.76V1H38.395z M38.395,6.292v22.202H16.191L38.395,6.292z
			 M63.603,66.199c-2.282,5.314-6.12,9.152-11.444,11.425c-2.664,1.138-5.481,1.712-8.371,1.712c-2.889,0-5.697-0.574-8.347-1.712
			c-5.293-2.272-9.14-6.119-11.421-11.425c-1.124-2.619-1.694-5.431-1.694-8.371c0-2.899,0.571-5.716,1.694-8.348
			c2.264-5.276,6.111-9.119,11.421-11.392c5.311-2.28,11.375-2.28,16.718,0c5.334,2.266,9.176,6.104,11.444,11.392
			c1.133,2.65,1.712,5.467,1.712,8.348C65.314,60.741,64.735,63.543,63.603,66.199z"/>
	</g>
</g>
</svg>
