<?xml version="1.0" encoding="utf-8"?>
<!-- Generator: Adobe Illustrator 14.0.0, SVG Export Plug-In . SVG Version: 6.00 Build 43363)  -->
<!DOCTYPE svg PUBLIC "-//W3C//DTD SVG 1.1//EN" "http://www.w3.org/Graphics/SVG/1.1/DTD/svg11.dtd">
<svg version="1.1" id="Layer_1" xmlns="http://www.w3.org/2000/svg" xmlns:xlink="http://www.w3.org/1999/xlink" x="0px" y="0px"
	 width="100px" height="100px" viewBox="0 0 100 100" enable-background="new 0 0 100 100" xml:space="preserve">
<g>
	<path fill="#808080" d="M43.169,1L11.824,32.344V99h76.352V1H43.169z M41.912,8.282v22.812H19.098L41.912,8.282z M83.915,94.739
		h-67.83V35.356h30.089V5.261h37.741V94.739z"/>
	<path fill="#808080" d="M53.059,58.41l-6.441-16.304l-3.947-0.038l-17.166,41.11l1.671,1.119l1.117,1.665L69.4,68.793l-0.037-3.945
		L53.059,58.41z M44.582,48.548l4.343,10.986l-7.666,7.665l-7.665,7.661L44.582,48.548z M36.609,77.873l15.33-15.326l10.981,4.336
		L36.609,77.873z"/>
	
		<rect x="67.869" y="48.978" transform="matrix(-0.7071 -0.7071 0.7071 -0.7071 80.1866 144.3999)" fill="#808080" width="4.261" height="13.23"/>
	
		<rect x="51.6" y="45.783" transform="matrix(-0.7071 0.7071 -0.7071 -0.7071 142.376 36.8521)" fill="#808080" width="23.91" height="4.261"/>
	
		<rect x="53.749" y="34.857" transform="matrix(0.7071 0.7071 -0.7071 0.7071 45.6913 -27.3656)" fill="#808080" width="4.261" height="13.228"/>
</g>
</svg>
