<?xml version="1.0" encoding="utf-8"?>
<!-- Generator: Adobe Illustrator 14.0.0, SVG Export Plug-In . SVG Version: 6.00 Build 43363)  -->
<!DOCTYPE svg PUBLIC "-//W3C//DTD SVG 1.1//EN" "http://www.w3.org/Graphics/SVG/1.1/DTD/svg11.dtd">
<svg version="1.1" id="Layer_1" xmlns="http://www.w3.org/2000/svg" xmlns:xlink="http://www.w3.org/1999/xlink" x="0px" y="0px"
	 width="100px" height="100px" viewBox="0 0 100 100" enable-background="new 0 0 100 100" xml:space="preserve">
<g>
	<path fill="#808080" d="M59.56,99c13.615,0,26.292-3.943,37.054-10.667c-0.419-3.131-0.974-6.622-1.693-10.56
		c-1.575-8.727-13.716-10.528-20.894-13.232c-7.165-2.719-4.202-8.81-4.202-8.81c2.372-2.698,3.218-8.134,3.218-8.134
		c3.643-4.547,3.215-10.16,2.695-11.508c-0.52-1.359-0.474-4.067-0.474-4.067C78.979,12.373,59.56,13.054,59.56,13.054
		s-19.429-0.681-15.723,18.969c0,0,0.055,2.708-0.464,4.067c-0.519,1.348-0.947,6.96,2.695,11.508c0,0,0.847,5.436,3.218,8.134
		c0,0,2.963,6.091-4.201,8.81c-7.183,2.704-19.319,4.506-20.898,13.232c-0.715,3.938-1.271,7.429-1.689,10.56
		C33.258,95.057,45.935,99,59.56,99z"/>
	<path fill="#808080" d="M39.421,62.715c1.579-0.491,3.086-0.961,4.415-1.461c0.888-0.332,2.021-0.924,2.385-1.804
		c0.292-0.687,0.119-1.511-0.018-1.938c-2.085-2.727-3.077-6.657-3.441-8.458c-3.942-5.531-3.523-12.018-2.668-14.229
		c0.124-0.347,0.237-1.496,0.247-2.477c-1.211-6.723-0.123-12.172,3.227-16.214c5.194-6.278,14.034-6.596,15.755-6.596h0.236V1
		H26.834L3.387,24.45v49.59h18.309C24.777,67.276,33.121,64.677,39.421,62.715z M26.834,5.525V24.45H7.902L26.834,5.525z"/>
</g>
</svg>
