<?xml version="1.0" encoding="utf-8"?>
<!-- Generator: Adobe Illustrator 14.0.0, SVG Export Plug-In . SVG Version: 6.00 Build 43363)  -->
<!DOCTYPE svg PUBLIC "-//W3C//DTD SVG 1.1//EN" "http://www.w3.org/Graphics/SVG/1.1/DTD/svg11.dtd">
<svg version="1.1" id="Layer_1" xmlns="http://www.w3.org/2000/svg" xmlns:xlink="http://www.w3.org/1999/xlink" x="0px" y="0px"
	 width="100px" height="100px" viewBox="0 0 100 100" enable-background="new 0 0 100 100" xml:space="preserve">
<g>
	<path fill="#808080" d="M98.689,86.982c-0.306-2.31-0.709-4.813-1.224-7.659c-1.294-7.159-8.666-9.451-14.052-11.122
		c-1.095-0.341-2.141-0.66-3.059-1.011c-0.74-0.279-0.997-0.559-1.032-0.643c-0.036-0.084-0.026-0.266,0.004-0.438
		c1.445-1.986,2.159-4.602,2.465-6.042c2.938-4.282,2.575-9.162,1.889-10.958c-0.04-0.148-0.089-0.727-0.098-1.246
		c0.887-5.064,0.031-9.211-2.554-12.325c-3.909-4.723-10.213-5.089-12.052-5.089H68.91h-0.084h-0.177
		c-1.835,0-8.134,0.366-12.048,5.084c-1.41,1.7-2.257,3.732-2.638,6.026c-2.163-1.042-4.477-1.824-6.563-2.482
		c-1.064-0.334-2.081-0.654-2.983-0.993c-0.736-0.279-0.995-0.561-1.031-0.647c-0.038-0.082-0.029-0.259,0.004-0.428
		c1.443-1.995,2.159-4.614,2.465-6.057c2.941-4.282,2.575-9.158,1.879-10.956c-0.033-0.14-0.08-0.723-0.089-1.248
		c0.887-5.06,0.029-9.203-2.551-12.319c-3.91-4.721-10.215-5.086-12.055-5.086h-0.062h-0.084h-0.177
		c-1.84,0-8.143,0.365-12.055,5.086c-2.582,3.114-3.442,7.261-2.556,12.325c-0.009,0.512-0.06,1.104-0.117,1.319
		c-0.667,1.729-1.026,6.596,1.91,10.875c0.309,1.445,1.029,4.074,2.478,6.071c0.022,0.148,0.033,0.33-0.004,0.417
		c-0.038,0.084-0.297,0.368-1.048,0.654c-0.909,0.341-1.955,0.663-3.047,1.004C12.895,40.768,5.523,43.06,4.231,50.218
		c-0.503,2.762-0.918,5.337-1.23,7.643l-0.312,2.322l1.988,1.246c8.502,5.314,18.254,8.12,28.203,8.12
		c8.369,0,16.434-1.937,23.97-5.753l0.155-0.08c0.354,0.828,0.767,1.662,1.312,2.406c0.022,0.151,0.031,0.338-0.004,0.426
		c-0.04,0.084-0.297,0.363-1.042,0.647c-0.913,0.346-1.959,0.665-3.054,1.006c-5.382,1.671-12.755,3.963-14.052,11.122
		c-0.507,2.797-0.906,5.301-1.223,7.655l-0.312,2.318l1.986,1.245c8.491,5.307,18.243,8.112,28.199,8.112
		c9.955,0,19.707-2.806,28.2-8.112L99,89.301L98.689,86.982z M32.88,65.919c-9.655,0-18.648-2.802-26.279-7.571
		c0.299-2.217,0.696-4.698,1.203-7.482c1.117-6.188,9.728-7.465,14.814-9.38c5.08-1.933,2.98-6.241,2.98-6.241
		c-1.68-1.924-2.283-5.78-2.283-5.78c-2.58-3.227-2.281-7.198-1.913-8.156c0.373-0.966,0.335-2.881,0.335-2.881
		C19.275,5.395,31.178,4.976,32.718,4.976c0.104,0,0.162,0.002,0.162,0.002s0.058-0.002,0.162-0.002
		c1.542,0,13.442,0.419,10.973,13.451c0,0-0.031,1.915,0.334,2.881c0.37,0.958,0.678,4.929-1.908,8.156c0,0-0.598,3.856-2.278,5.78
		c0,0-2.101,4.309,2.979,6.241c2.859,1.073,6.793,1.978,9.922,3.635c0.04,0.913,0.085,1.817,0.249,2.802
		c-0.005,0.435-0.049,0.904-0.089,1.1c-0.874,2.243-0.815,7.207,1.933,11.329c0.013,0.062,0.04,0.134,0.053,0.204
		C48.491,63.959,40.923,65.919,32.88,65.919z M68.813,95.023c-9.654,0-18.645-2.792-26.273-7.562
		c0.299-2.226,0.692-4.699,1.197-7.492c1.122-6.188,9.729-7.464,14.818-9.379c5.08-1.924,2.979-6.25,2.979-6.25
		c-1.685-1.906-2.283-5.763-2.283-5.763c-2.584-3.228-2.278-7.208-1.91-8.165c0.372-0.966,0.327-2.872,0.327-2.872
		c-2.455-13.041,9.442-13.46,10.98-13.46c0.106,0,0.164,0.002,0.164,0.002s0.058-0.002,0.164-0.002
		c1.538,0,13.444,0.419,10.975,13.46c0,0-0.03,1.906,0.337,2.872c0.368,0.957,0.67,4.938-1.91,8.165c0,0-0.603,3.856-2.278,5.763
		c0,0-2.105,4.326,2.975,6.25c5.089,1.915,13.701,3.191,14.818,9.379c0.505,2.793,0.899,5.267,1.196,7.492
		C87.457,92.231,78.472,95.023,68.813,95.023z"/>
	<path fill="#808080" d="M19.537,81.371l3.391,3.396H12.782c-3.896,0-7.07-3.174-7.07-7.074v-6.295
		C4.111,70.794,2.547,70.103,1,69.358v8.334c0,6.498,5.288,11.781,11.782,11.781h10.146l-3.391,3.396l3.331,3.333l9.078-9.078
		l-9.078-9.086L19.537,81.371z"/>
</g>
</svg>
