<?xml version="1.0" encoding="utf-8"?>
<!-- Generator: Adobe Illustrator 14.0.0, SVG Export Plug-In . SVG Version: 6.00 Build 43363)  -->
<!DOCTYPE svg PUBLIC "-//W3C//DTD SVG 1.1//EN" "http://www.w3.org/Graphics/SVG/1.1/DTD/svg11.dtd">
<svg version="1.1" id="Layer_1" xmlns="http://www.w3.org/2000/svg" xmlns:xlink="http://www.w3.org/1999/xlink" x="0px" y="0px"
	 width="100px" height="100px" viewBox="0 0 100 100" enable-background="new 0 0 100 100" xml:space="preserve">
<g>
	<path fill="#808080" d="M95.141,12.899H68.723V7.442C68.723,3.89,65.832,1,62.279,1H37.717c-3.553,0-6.443,2.89-6.443,6.442v5.457
		H4.86v4.295h6.353l4.369,66.94C16.116,92.331,23.234,99,31.449,99h37.102c8.213,0,15.332-6.669,15.867-14.865l4.371-66.94h6.352
		V12.899z M35.57,7.442c0-1.185,0.962-2.147,2.147-2.147h24.562c1.184,0,2.148,0.963,2.148,2.147v5.457H35.57V7.442z M80.133,83.858
		c-0.391,5.98-5.588,10.847-11.582,10.847H31.449c-5.996,0-11.191-4.866-11.581-10.847l-4.35-66.664h68.964L80.133,83.858z"/>
	
		<rect x="1.646" y="53.687" transform="matrix(0.0453 0.999 -0.999 0.0453 86.9948 20.6454)" fill="#808080" width="62.101" height="4.295"/>
	<rect x="47.851" y="24.816" fill="#808080" width="4.295" height="62.036"/>
	
		<rect x="65.155" y="24.785" transform="matrix(0.999 0.0451 -0.0451 0.999 2.5841 -2.9757)" fill="#808080" width="4.291" height="62.101"/>
</g>
</svg>
